%YAML 1.1
%TAG !u! tag:unity3d.com,2011:
--- !u!1045 &1
EditorBuildSettings:
  m_ObjectHideFlags: 0
  serializedVersion: 2
  m_Scenes:
  - enabled: 0
    path: 
    guid: 00000000000000000000000000000000
  - enabled: 1
    path: Assets/Scenes/Start Menu.unity
    guid: c3559f6cbeed8c744a76bc299b08d404
  - enabled: 1
    path: Assets/Scenes/SampleScene.unity
    guid: d3af7e57e6cbd184b8a7d83aea3a74cc
  - enabled: 1
    path: Assets/Scenes/Lose Screen.unity
    guid: b4d22761f8818ba40a02f55ec15bde7d
  m_configObjects: {}
